…
    ## quartz_off_screen 
    ##                 2

``` r
#See top 5 hits per ancestry
(top_hits = region_interest %>% 
  group_by(Ancestry) %>% 
  arrange(pval) %>% 
  slice_head(n = 5) %>% 
  mutate(POS = paste(CHR, POS, sep = ":")) %>% 
  select(Ancestry, ID, POS, pval, p_adj))
```

    ## # A tibble: 25 × 5
    ## # Groups:   Ancestry [5]
    ##    Ancestry ID          POS               pval  p_adj
    ##    <chr>    <chr>       <chr>            <dbl>  <dbl>
    ##  1 AFR      rs67376473  chr17:44344321 0.00126  0.124
    ##  2 AFR      rs149391563 chr17:44343693 0.0146   1.45 
    ##  3 AFR      rs145190823 chr17:44344932 0.0160   1.59 
    ##  4 AFR      rs850713    chr17:44350364 0.0357   3.54 
    ##  5 AFR      rs146364320 chr17:44347746 0.0360   3.56 
    ##  6 AMR      rs9897526   chr17:44349572 0.0473   4.68 
    ##  7 AMR      rs72824731  chr17:44343224 0.0590   5.84 
    ##  8 AMR      rs850713    chr17:44350364 0.166   16.4  
    ##  9 AMR      .           chr17:44339396 0.181   17.9  
    ## 10 AMR      rs117883091 chr17:44348113 0.266   26.4  
    ## # ℹ 15 more rows
…
